TKVMS/Gosh89/Gosh89.sim/sim_1/behav/xsim/gost89_ecb_tb.vcd
$date
   Sat Jun 29 20:34:52 2024
$end
$version
  2020.2
$end
$timescale
  1ps
$end
$scope module gost89_ecb_tb $end
$var reg 1 ! clk $end
$var reg 512 " sbox [511:0] $end
$var reg 256 # key [255:0] $end
$var wire 1 $ mode_e $end
$var wire 1 % mode_d $end
$var reg 1 & reset $end
$var reg 1 ' load_data $end
$var reg 64 ( in_e1 [63:0] $end
$var reg 64 ) in_e2 [63:0] $end
$var reg 64 * in_d1 [63:0] $end
$var reg 64 + in_d2 [63:0] $end
$var wire 64 , out_e1 [63:0] $end
$var wire 64 - out_e2 [63:0] $end
$var wire 64 . out_d1 [63:0] $end
$var wire 64 / out_d2 [63:0] $end
$var wire 1 0 busy_e1 $end
$var wire 1 1 busy_e2 $end
$var wire 1 2 busy_d1 $end
$var wire 1 3 busy_d2 $end
$scope module ecb1 $end
$var wire 1 4 clk $end
$var wire 1 5 reset $end
$var wire 1 $ mode $end
$var wire 1 6 load_data $end
$var wire 512 7 sbox [511:0] $end
$var wire 256 8 key [255:0] $end
$var wire 64 9 in [63:0] $end
$var reg 64 : out [63:0] $end
$var reg 1 ; busy $end
$var reg 6 < round_num [5:0] $end
$var reg 32 = n1 [31:0] $end
$var reg 32 > n2 [31:0] $end
$var reg 32 ? round_key [31:0] $end
$var wire 32 @ out1 [31:0] $end
$var wire 32 A out2 [31:0] $end
$scope module rnd $end
$var wire 1 4 clk $end
$var wire 512 7 sbox [511:0] $end
$var wire 32 B key [31:0] $end
$var wire 32 C n1 [31:0] $end
$var wire 32 D n2 [31:0] $end
$var wire 32 @ out1 [31:0] $end
$var wire 32 A out2 [31:0] $end
$var wire 32 E tmp1 [31:0] $end
$var wire 32 F tmp2 [31:0] $end
$scope module sbox1 $end
$var wire 64 G sbox [63:0] $end
$var wire 4 H in [3:0] $end
$var reg 4 I out [3:0] $end
$upscope $end
$scope module sbox2 $end
$var wire 64 J sbox [63:0] $end
$var wire 4 K in [3:0] $end
$var reg 4 L out [3:0] $end
$upscope $end
$scope module sbox3 $end
$var wire 64 M sbox [63:0] $end
$var wire 4 N in [3:0] $end
$var reg 4 O out [3:0] $end
$upscope $end
$scope module sbox4 $end
$var wire 64 P sbox [63:0] $end
$var wire 4 Q in [3:0] $end
$var reg 4 R out [3:0] $end
$upscope $end
$scope module sbox5 $end
$var wire 64 S sbox [63:0] $end
$var wire 4 T in [3:0] $end
$var reg 4 U out [3:0] $end
$upscope $end
$scope module sbox6 $end
$var wire 64 V sbox [63:0] $end
$var wire 4 W in [3:0] $end
$var reg 4 X out [3:0] $end
$upscope $end
$scope module sbox7 $end
$var wire 64 Y sbox [63:0] $end
$var wire 4 Z in [3:0] $end
$var reg 4 [ out [3:0] $end
$upscope $end
$scope module sbox8 $end
$var wire 64 \ sbox [63:0] $end
$var wire 4 ] in [3:0] $end
$var reg 4 ^ out [3:0] $end
$upscope $end
$upscope $end
$upscope $end
$scope module ecb2 $end
$var wire 1 _ clk $end
$var wire 1 ` reset $end
$var wire 1 % mode $end
$var wire 1 a load_data $end
$var wire 512 b sbox [511:0] $end
$var wire 256 c key [255:0] $end
$var wire 64 d in [63:0] $end
$var reg 64 e out [63:0] $end
$var reg 1 f busy $end
$var reg 6 g round_num [5:0] $end
$var reg 32 h n1 [31:0] $end
$var reg 32 i n2 [31:0] $end
$var reg 32 j round_key [31:0] $end
$var wire 32 k out1 [31:0] $end
$var wire 32 l out2 [31:0] $end
$scope module rnd $end
$var wire 1 _ clk $end
$var wire 512 b sbox [511:0] $end
$var wire 32 m key [31:0] $end
$var wire 32 n n1 [31:0] $end
$var wire 32 o n2 [31:0] $end
$var wire 32 k out1 [31:0] $end
$var wire 32 l out2 [31:0] $end
$var wire 32 p tmp1 [31:0] $end
$var wire 32 q tmp2 [31:0] $end
$scope module sbox1 $end
$var wire 64 r sbox [63:0] $end
$var wire 4 s in [3:0] $end
$var reg 4 t out [3:0] $end
$upscope $end
$scope module sbox2 $end
$var wire 64 u sbox [63:0] $end
$var wire 4 v in [3:0] $end
$var reg 4 w out [3:0] $end
$upscope $end
$scope module sbox3 $end
$var wire 64 x sbox [63:0] $end
$var wire 4 y in [3:0] $end
$var reg 4 z out [3:0] $end
$upscope $end
$scope module sbox4 $end
$var wire 64 { sbox [63:0] $end
$var wire 4 | in [3:0] $end
$var reg 4 } out [3:0] $end
$upscope $end
$scope module sbox5 $end
$var wire 64 ~ sbox [63:0] $end
$var wire 4 !! in [3:0] $end
$var reg 4 "! out [3:0] $end
$upscope $end
$scope module sbox6 $end
$var wire 64 #! sbox [63:0] $end
$var wire 4 $! in [3:0] $end
$var reg 4 %! out [3:0] $end
$upscope $end
$scope module sbox7 $end
$var wire 64 &! sbox [63:0] $end
$var wire 4 '! in [3:0] $end
$var reg 4 (! out [3:0] $end
$upscope $end
$scope module sbox8 $end
$var wire 64 )! sbox [63:0] $end
$var wire 4 *! in [3:0] $end
$var reg 4 +! out [3:0] $end
$upscope $end
$upscope $end
$upscope $end
$scope module ecb_encrypt $end
$var wire 1 ,! clk $end
$var wire 1 -! reset $end
$var wire 1 .! load_data $end
$var wire 512 /! sbox [511:0] $end
$var wire 256 0! key [255:0] $end
$var wire 64 1! in [63:0] $end
$var reg 64 2! out [63:0] $end
$var reg 1 3! busy $end
$var reg 6 4! round_num [5:0] $end
$var reg 32 5! n1 [31:0] $end
$var reg 32 6! n2 [31:0] $end
$var reg 32 7! round_key [31:0] $end
$var wire 32 8! out1 [31:0] $end
$var wire 32 9! out2 [31:0] $end
$scope module rnd $end
$var wire 1 ,! clk $end
$var wire 512 /! sbox [511:0] $end
$var wire 32 :! key [31:0] $end
$var wire 32 ;! n1 [31:0] $end
$var wire 32 <! n2 [31:0] $end
$var wire 32 8! out1 [31:0] $end
$var wire 32 9! out2 [31:0] $end
$var wire 32 =! tmp1 [31:0] $end
$var wire 32 >! tmp2 [31:0] $end
$scope module sbox1 $end
$var wire 64 ?! sbox [63:0] $end
$var wire 4 @! in [3:0] $end
$var reg 4 A! out [3:0] $end
$upscope $end
$scope module sbox2 $end
$var wire 64 B! sbox [63:0] $end
$var wire 4 C! in [3:0] $end
$var reg 4 D! out [3:0] $end
$upscope $end
$scope module sbox3 $end
$var wire 64 E! sbox [63:0] $end
$var wire 4 F! in [3:0] $end
$var reg 4 G! out [3:0] $end
$upscope $end
$scope module sbox4 $end
$var wire 64 H! sbox [63:0] $end
$var wire 4 I! in [3:0] $end
$var reg 4 J! out [3:0] $end
$upscope $end
$scope module sbox5 $end
$var wire 64 K! sbox [63:0] $end
$var wire 4 L! in [3:0] $end
$var reg 4 M! out [3:0] $end
$upscope $end
$scope module sbox6 $end
$var wire 64 N! sbox [63:0] $end
$var wire 4 O! in [3:0] $end
$var reg 4 P! out [3:0] $end
$upscope $end
$scope module sbox7 $end
$var wire 64 Q! sbox [63:0] $end
$var wire 4 R! in [3:0] $end
$var reg 4 S! out [3:0] $end
$upscope $end
$scope module sbox8 $end
$var wire 64 T! sbox [63:0] $end
$var wire 4 U! in [3:0] $end
$var reg 4 V! out [3:0] $end
$upscope $end
$upscope $end
$upscope $end
$scope module ecb_decrypt $end
$var wire 1 W! clk $end
$var wire 1 X! reset $end
$var wire 1 Y! load_data $end
$var wire 512 Z! sbox [511:0] $end
$var wire 256 [! key [255:0] $end
$var wire 64 \! in [63:0] $end
$var reg 64 ]! out [63:0] $end
$var reg 1 ^! busy $end
$var reg 6 _! round_num [5:0] $end
$var reg 32 `! n1 [31:0] $end
$var reg 32 a! n2 [31:0] $end
$var reg 32 b! round_key [31:0] $end
$var wire 32 c! out1 [31:0] $end
$var wire 32 d! out2 [31:0] $end
$scope module rnd $end
$var wire 1 W! clk $end
$var wire 512 Z! sbox [511:0] $end
$var wire 32 e! key [31:0] $end
$var wire 32 f! n1 [31:0] $end
$var wire 32 g! n2 [31:0] $end
$var wire 32 c! out1 [31:0] $end
$var wire 32 d! out2 [31:0] $end
$var wire 32 h! tmp1 [31:0] $end
$var wire 32 i! tmp2 [31:0] $end
$scope module sbox1 $end
$var wire 64 j! sbox [63:0] $end
$var wire 4 k! in [3:0] $end
$var reg 4 l! out [3:0] $end
$upscope $end
$scope module sbox2 $end
$var wire 64 m! sbox [63:0] $end
$var wire 4 n! in [3:0] $end
$var reg 4 o! out [3:0] $end
$upscope $end
$scope module sbox3 $end
$var wire 64 p! sbox [63:0] $end
$var wire 4 q! in [3:0] $end
$var reg 4 r! out [3:0] $end
$upscope $end
$scope module sbox4 $end
$var wire 64 s! sbox [63:0] $end
$var wire 4 t! in [3:0] $end
$var reg 4 u! out [3:0] $end
$upscope $end
$scope module sbox5 $end
$var wire 64 v! sbox [63:0] $end
$var wire 4 w! in [3:0] $end
$var reg 4 x! out [3:0] $end
$upscope $end
$scope module sbox6 $end
$var wire 64 y! sbox [63:0] $end
$var wire 4 z! in [3:0] $end
$var reg 4 {! out [3:0] $end
$upscope $end
$scope module sbox7 $end
$var wire 64 |! sbox [63:0] $end
$var wire 4 }! in [3:0] $end
$var reg 4 ~! out [3:0] $end
$upscope $end
$scope module sbox8 $end
$var wire 64 !" sbox [63:0] $end
$var wire 4 "" in [3:0] $end
$var reg 4 #" out [3:0] $end
$upscope $end
$upscope $end
$upscope $end
$upscope $end
$enddefinitions $end
#0
$dumpvars
0!
bx !!
b1111111010000010101111010010010010010001111100110101110001100 !"
b1001010100100101101100000001110011010110001110001111111010100111110101101001100011011011111101000100011100000010000011101011001010110000001110110100011010000101110111111000111011000001001101101111101101000010000100010011111111001000110110010110010010100110110110001110001010111111101100001001010100111100000001110110010010010111010000001110010000111010011011010000101100111001111111011011011010000010011111101011001000010101110011101101000001011000001111111010000010101111010010010010010001111100110101110001100 "
bx "!
bx ""
b10001110101111101101110000001010000001110001111101111111010110100101100011111000011100100001110110110110011110010100011110100010101010001110001001001000010100100011010111000011110100010100010111101111001110011011001111011010010101111001110111110111101 #
b100101110100000011100100001110100110110100001011001110011111110 #!
bx #"
0$
bx $!
1%
bx %!
0&
b1101101101000001001111110101100100001010111001110110100000101100 &!
0'
bx '!
bx (
bx (!
bx )
b1111111010000010101111010010010010010001111100110101110001100 )!
bx *
bx *!
bx +
bx +!
bx ,
0,!
bx -
0-!
bx .
0.!
bx /
b1001010100100101101100000001110011010110001110001111111010100111110101101001100011011011111101000100011100000010000011101011001010110000001110110100011010000101110111111000111011000001001101101111101101000010000100010011111111001000110110010110010010100110110110001110001010111111101100001001010100111100000001110110010010010111010000001110010000111010011011010000101100111001111111011011011010000010011111101011001000010101110011101101000001011000001111111010000010101111010010010010010001111100110101110001100 /!
x0
b10001110101111101101110000001010000001110001111101111111010110100101100011111000011100100001110110110110011110010100011110100010101010001110001001001000010100100011010111000011110100010100010111101111001110011011001111011010010101111001110111110111101 0!
x1
bx 1!
x2
bx 2!
03
x3!
04
bx 4!
05
bx 5!
06
bx 6!
b1001010100100101101100000001110011010110001110001111111010100111110101101001100011011011111101000100011100000010000011101011001010110000001110110100011010000101110111111000111011000001001101101111101101000010000100010011111111001000110110010110010010100110110110001110001010111111101100001001010100111100000001110110010010010111010000001110010000111010011011010000101100111001111111011011011010000010011111101011001000010101110011101101000001011000001111111010000010101111010010010010010001111100110101110001100 7
bx 7!
b10001110101111101101110000001010000001110001111101111111010110100101100011111000011100100001110110110110011110010100011110100010101010001110001001001000010100100011010111000011110100010100010111101111001110011011001111011010010101111001110111110111101 8
bx 8!
bx 9
bx 9!
bx :
bx :!
x;
bx ;!
bx <
bx <!
bx =
bx =!
bx >
bx >!
bx ?
b100101010010010110110000000111001101011000111000111111101010011 ?!
bx @
bx @!
bx A
bx A!
bx B
b1110101101001100011011011111101000100011100000010000011101011001 B!
bx C
bx C!
bx D
bx D!
bx E
b101100000011101101000110100001011101111110001110110000010011011 E!
bx F
bx F!
b100101010010010110110000000111001101011000111000111111101010011 G
bx G!
bx H
b111110110100001000010001001111111100100011011001011001001010011 H!
bx I
bx I!
b1110101101001100011011011111101000100011100000010000011101011001 J
bx J!
bx K
b110110001110001010111111101100001001010100111100000001110110010 K!
bx L
bx L!
b101100000011101101000110100001011101111110001110110000010011011 M
bx M!
bx N
b100101110100000011100100001110100110110100001011001110011111110 N!
bx O
bx O!
b111110110100001000010001001111111100100011011001011001001010011 P
bx P!
bx Q
b1101101101000001001111110101100100001010111001110110100000101100 Q!
bx R
bx R!
b110110001110001010111111101100001001010100111100000001110110010 S
bx S!
bx T
b1111111010000010101111010010010010010001111100110101110001100 T!
bx U
bx U!
b100101110100000011100100001110100110110100001011001110011111110 V
bx V!
bx W
0W!
bx X
0X!
b1101101101000001001111110101100100001010111001110110100000101100 Y
0Y!
bx Z
b1001010100100101101100000001110011010110001110001111111010100111110101101001100011011011111101000100011100000010000011101011001010110000001110110100011010000101110111111000111011000001001101101111101101000010000100010011111111001000110110010110010010100110110110001110001010111111101100001001010100111100000001110110010010010111010000001110010000111010011011010000101100111001111111011011011010000010011111101011001000010101110011101101000001011000001111111010000010101111010010010010010001111100110101110001100 Z!
bx [
b10001110101111101101110000001010000001110001111101111111010110100101100011111000011100100001110110110110011110010100011110100010101010001110001001001000010100100011010111000011110100010100010111101111001110011011001111011010010101111001110111110111101 [!
b1111111010000010101111010010010010010001111100110101110001100 \
bx \!
bx ]
bx ]!
bx ^
0^!
0_
b100000 _!
0`
bx `!
0a
bx a!
b1001010100100101101100000001110011010110001110001111111010100111110101101001100011011011111101000100011100000010000011101011001010110000001110110100011010000101110111111000111011000001001101101111101101000010000100010011111111001000110110010110010010100110110110001110001010111111101100001001010100111100000001110110010010010111010000001110010000111010011011010000101100111001111111011011011010000010011111101011001000010101110011101101000001011000001111111010000010101111010010010010010001111100110101110001100 b
bx b!
b10001110101111101101110000001010000001110001111101111111010110100101100011111000011100100001110110110110011110010100011110100010101010001110001001001000010100100011010111000011110100010100010111101111001110011011001111011010010101111001110111110111101 c
bx c!
bx d
bx d!
bx e
bx e!
xf
bx f!
bx g
bx g!
bx h
bx h!
bx i
bx i!
bx j
b100101010010010110110000000111001101011000111000111111101010011 j!
bx k
bx k!
bx l
bx l!
bx m
b1110101101001100011011011111101000100011100000010000011101011001 m!
bx n
bx n!
bx o
bx o!
bx p
b101100000011101101000110100001011101111110001110110000010011011 p!
bx q
bx q!
b100101010010010110110000000111001101011000111000111111101010011 r
bx r!
bx s
b111110110100001000010001001111111100100011011001011001001010011 s!
bx t
bx t!
b1110101101001100011011011111101000100011100000010000011101011001 u
bx u!
bx v
b110110001110001010111111101100001001010100111100000001110110010 v!
bx w
bx w!
b101100000011101101000110100001011101111110001110110000010011011 x
bx x!
bx y
b100101110100000011100100001110100110110100001011001110011111110 y!
bx z
bx z!
b111110110100001000010001001111111100100011011001011001001010011 {
bx {!
bx |
b1101101101000001001111110101100100001010111001110110100000101100 |!
bx }
bx }!
b110110001110001010111111101100001001010100111100000001110110010 ~
bx ~!
$end
#1000
1!
bx !!
bx ""
bx $!
1'
bx '!
b1101010110101000101001100000100011110100111100010001010110110100 (
b1101010110101000101001100000100011110100111100010001010110110100 )
b1101011001011000101000110110101100010001110011110100011011101011 *
bx *!
b1101011001011000101000110110101100010001110011110100011011101011 +
1,!
1.!
10
11
b1101010110101000101001100000100011110100111100010001010110110100 1!
12
13
13!
14
b0 4!
b11010101101010001010011000001000 5!
16
b11110100111100010001010110110100 6!
b1101010110101000101001100000100011110100111100010001010110110100 9
b11010101101010001010011000001000 9!
1;
b11010101101010001010011000001000 ;!
b0 <
b11110100111100010001010110110100 <!
b11010101101010001010011000001000 =
bx =!
b11110100111100010001010110110100 >
bx @!
b11010101101010001010011000001000 A
b11010101101010001010011000001000 C
bx C!
b11110100111100010001010110110100 D
bx E
bx F!
bx H
bx I!
bx K
bx L!
bx N
bx O!
bx Q
bx R!
bx T
bx U!
bx W
1W!
1Y!
bx Z
b1101011001011000101000110110101100010001110011110100011011101011 \!
bx ]
1^!
1_
b0 _!
b11010110010110001010001101101011 `!
1a
b10001110011110100011011101011 a!
b1101011001011000101000110110101100010001110011110100011011101011 d
b11010110010110001010001101101011 d!
1f
b11010110010110001010001101101011 f!
b0 g
b10001110011110100011011101011 g!
b11010110010110001010001101101011 h
bx h!
b10001110011110100011011101011 i
bx k!
b11010110010110001010001101101011 l
b11010110010110001010001101101011 n
bx n!
b10001110011110100011011101011 o
bx p
bx q!
bx s
bx t!
bx v
bx w!
bx y
bx z!
bx |
bx }!
#2000
0!
0,!
04
0W!
0_
#3000
1!
b1110 !!
b1011 "!
b1101 ""
b1011 #"
b1100 $!
b1001 %!
0'
b1010 '!
b1110 (!
b1101 *!
b1011 +!
1,!
0.!
14
b1 4!
06
b100011101011111011011100000 7!
b101110110000111010000001000001 8!
b100011101011111011011100000 :!
b1 <
b11011010000111101001110011101000 =!
b10111110101110110100011001010110 >!
b100011101011111011011100000 ?
b101110110000111010000001000001 @
b1000 @!
b110 A!
b100011101011111011011100000 B
b1110 C!
b101 D!
b11011010000111101001110011101000 E
b10111110101110110100011001010110 F
b1100 F!
b110 G!
b1000 H
b110 I
b1001 I!
b100 J!
b1110 K
b101 L
b1110 L!
b1011 M!
b1100 N
b110 O
b1 O!
b1011 P!
b1001 Q
b100 R
b1010 R!
b1110 S!
b1110 T
b1011 U
b1101 U!
b1011 V!
b1 W
1W!
b1011 X
0Y!
b1010 Z
b1110 [
b1101 ]
b1011 ^
1_
b1 _!
0a
b100011101011111011011100000 b!
b11001011101011000010001100011111 c!
b100011101011111011011100000 e!
b1 g
b11011010110011101001101001001011 h!
b10111110100110110100110001101100 i!
b100011101011111011011100000 j
b11001011101011000010001100011111 k
b1011 k!
b1100 l!
b100011101011111011011100000 m
b100 n!
b110 o!
b11011010110011101001101001001011 p
b10111110100110110100110001101100 q
b1010 q!
b1100 r!
b1011 s
b1100 t
b1001 t!
b100 u!
b100 v
b110 w
b1110 w!
b1011 x!
b1010 y
b1100 z
b1100 z!
b1001 {!
b1001 |
b100 }
b1010 }!
b1110 ~!
#4000
0!
0,!
04
0W!
0_
#5000
1!
b101 !!
b1111 "!
b1 ""
b1111 #"
b1110 $!
b1111 %!
b1011 '!
b111 (!
b1 *!
b1111 +!
1,!
14
b10 4!
b101110110000111010000001000001 5!
b11010101101010001010011000001000 6!
b1010000001110001111101111111010 7!
b11010111100111101100010000011111 8!
b101110110000111010000001000001 9!
b1010000001110001111101111111010 :!
b101110110000111010000001000001 ;!
b10 <
b11010101101010001010011000001000 <!
b101110110000111010000001000001 =
b1111110111111001001110000111011 =!
b11010101101010001010011000001000 >
b1000010111000000100011011001100 >!
b1010000001110001111101111111010 ?
b11010111100111101100010000011111 @
b1011 @!
b101110110000111010000001000001 A
b1100 A!
b1010000001110001111101111111010 B
b101110110000111010000001000001 C
b11 C!
b11010101101010001010011000001000 D
b1100 D!
b1111110111111001001110000111011 E
b1000010111000000100011011001100 F
b1100 F!
b1011 H
b1100 I
b1001 I!
b11 K
b1100 L
b1100 L!
b0 M!
b1100 N
b1111 O!
b1110 P!
b1001 Q
b1110 R!
b10 S!
b1100 T
b0 U
b111 U!
b100 V!
b1111 W
1W!
b1110 X
b1110 Z
b10 [
b111 ]
b100 ^
1_
b10 _!
b11001011101011000010001100011111 `!
b11010110010110001010001101101011 a!
b1010000001110001111101111111010 b!
b101000100001010111110011010100 c!
b11001011101011000010001100011111 d!
b1010000001110001111101111111010 e!
b11001011101011000010001100011111 f!
b10 g
b11010110010110001010001101101011 g!
b11001011101011000010001100011111 h
b11011111001010001111100011001 h!
b11010110010110001010001101101011 i
b11110111111111111101101110111011 i!
b1010000001110001111101111111010 j
b101000100001010111110011010100 k
b1001 k!
b11001011101011000010001100011111 l
b1011 l!
b1010000001110001111101111111010 m
b11001011101011000010001100011111 n
b1 n!
b11010110010110001010001101101011 o
b1011 o!
b11011111001010001111100011001 p
b11110111111111111101101110111011 q
b1111 q!
b1011 r!
b1001 s
b1011 t
b1 t!
b1101 u!
b1 v
b1011 w
b101 w!
b1111 x!
b1111 y
b1011 z
b1110 z!
b1111 {!
b1 |
b1101 }
b1011 }!
b111 ~!
#6000
0!
0,!
04
0W!
0_
#7000
1!
b1101 !!
b11 "!
b1111 ""
b1100 #"
b100 $!
b111 %!
b1011 '!
b1111 *!
b1100 +!
1,!
14
b11 4!
b11010111100111101100010000011111 5!
b101110110000111010000001000001 6!
b11010010110001111100001110010000 7!
b11000001110101111011100110110001 8!
b11010111100111101100010000011111 9!
b11010010110001111100001110010000 :!
b11010111100111101100010000011111 ;!
b11 <
b101110110000111010000001000001 <!
b11010111100111101100010000011111 =
b10101010011001101000011110101111 =!
b101110110000111010000001000001 >
b111110000111011110001010000011 >!
b11010010110001111100001110010000 ?
b11000001110101111011100110110001 @
b1111 @!
b11010111100111101100010000011111 A
b11 A!
b11010010110001111100001110010000 B
b11010111100111101100010000011111 C
b1010 C!
b101110110000111010000001000001 D
b1000 D!
b10101010011001101000011110101111 E
b111110000111011110001010000011 F
b111 F!
b10 G!
b1111 H
b11 I
b1000 I!
b1110 J!
b1010 K
b1000 L
b110 L!
b1101 M!
b111 N
b10 O
b110 O!
b1 P!
b1000 Q
b1110 R
b1010 R!
b1110 S!
b110 T
b1101 U
b1010 U!
b11 V!
b110 W
1W!
b1 X
b1010 Z
b1110 [
b1010 ]
b11 ^
1_
b11 _!
b101000100001010111110011010100 `!
b11001011101011000010001100011111 a!
b11010010110001111100001110010000 b!
b1010011100000111100110100100100 c!
b101000100001010111110011010100 d!
b11010010110001111100001110010000 e!
b101000100001010111110011010100 f!
b11 g
b11001011101011000010001100011111 g!
b101000100001010111110011010100 h
b11111011010011010100000001100100 h!
b11001011101011000010001100011111 i
b11000111011100110000010111111101 i!
b11010010110001111100001110010000 j
b1010011100000111100110100100100 k
b100 k!
b101000100001010111110011010100 l
b1101 l!
b11010010110001111100001110010000 m
b101000100001010111110011010100 n
b110 n!
b11001011101011000010001100011111 o
b1111 o!
b11111011010011010100000001100100 p
b11000111011100110000010111111101 q
b0 q!
b101 r!
b100 s
b1101 t
b100 t!
b0 u!
b110 v
b1111 w
b1101 w!
b11 x!
b0 y
b101 z
b100 z!
b111 {!
b100 |
b0 }
b1011 }!
#8000
0!
0,!
04
0W!
0_
#9000
1!
b111 !!
b1000 "!
b100 ""
b101 #"
b11 $!
b0 %!
b1 '!
b1011 (!
b100 *!
b101 +!
1,!
14
b100 4!
b11000001110101111011100110110001 5!
b11010111100111101100010000011111 6!
b11101101101100111100101000111101 7!
b100000111101000110110111111110 8!
b11000001110101111011100110110001 9!
b11101101101100111100101000111101 :!
b11000001110101111011100110110001 ;!
b100 <
b11010111100111101100010000011111 <!
b11000001110101111011100110110001 =
b10101111100010111000001111101110 =!
b11010111100111101100010000011111 >
b111100001111101110110101010101 >!
b11101101101100111100101000111101 ?
b100000111101000110110111111110 @
b1110 @!
b11000001110101111011100110110001 A
b101 A!
b11101101101100111100101000111101 B
b11000001110101111011100110110001 C
b1110 C!
b11010111100111101100010000011111 D
b101 D!
b10101111100010111000001111101110 E
b111100001111101110110101010101 F
b11 F!
b1101 G!
b1110 H
b101 I
b1000 I!
b1110 K
b101 L
b1011 L!
b1110 M!
b11 N
b1101 O
b1000 O!
b11 P!
b1000 Q
b1111 R!
b1100 S!
b1011 T
b1110 U
b1010 U!
b1000 W
1W!
b11 X
b1111 Z
b1100 [
b1010 ]
1_
b100 _!
b1010011100000111100110100100100 `!
b101000100001010111110011010100 a!
b11101101101100111100101000111101 b!
b1101010100100101010111000001100 c!
b1010011100000111100110100100100 d!
b11101101101100111100101000111101 e!
b1010011100000111100110100100100 f!
b100 g
b101000100001010111110011010100 g!
b1010011100000111100110100100100 h
b1000001001101111001011101100001 h!
b101000100001010111110011010100 i
b1011011000010000100001011111010 i!
b11101101101100111100101000111101 j
b1101010100100101010111000001100 k
b1 k!
b1010011100000111100110100100100 l
b1010 l!
b11101101101100111100101000111101 m
b1010011100000111100110100100100 n
b110 n!
b101000100001010111110011010100 o
b1000001001101111001011101100001 p
b1011011000010000100001011111010 q
b111 q!
b10 r!
b1 s
b1010 t
b1001 t!
b100 u!
b110 v
b111 w!
b1000 x!
b111 y
b10 z
b11 z!
b0 {!
b1001 |
b100 }
b1 }!
b1011 ~!
#10000
0!
0,!
04
0W!
0_
#11000
1!
b1001 !!
b1010 "!
b111 ""
b100 #"
b1101 $!
b1100 %!
b1111 '!
b1100 (!
b111 *!
b100 +!
1,!
14
b101 4!
b100000111101000110110111111110 5!
b11000001110101111011100110110001 6!
b10101010001110001001001000010 7!
b10110110111111001001100110011001 8!
b100000111101000110110111111110 9!
b10101010001110001001001000010 :!
b100000111101000110110111111110 ;!
b101 <
b11000001110101111011100110110001 <!
b100000111101000110110111111110 =
b110110001110111000000001000000 =!
b11000001110101111011100110110001 >
b101000011101110010101100100 >!
b10101010001110001001001000010 ?
b10110110111111001001100110011001 @
b0 @!
b100000111101000110110111111110 A
b100 A!
b10101010001110001001001000010 B
b100000111101000110110111111110 C
b100 C!
b11000001110101111011100110110001 D
b110 D!
b110110001110111000000001000000 E
b101000011101110010101100100 F
b0 F!
b101 G!
b0 H
b100 I
b1000 I!
b100 K
b110 L
b1011 L!
b0 N
b101 O
b11 O!
b0 P!
b1000 Q
b110 R!
b101 S!
b1011 T
b11 U!
b0 V!
b11 W
1W!
b0 X
b110 Z
b101 [
b11 ]
b0 ^
1_
b101 _!
b1101010100100101010111000001100 `!
b1010011100000111100110100100100 a!
b10101010001110001001001000010 b!
b110001010001110011101000010 c!
b1101010100100101010111000001100 d!
b10101010001110001001001000010 e!
b1101010100100101010111000001100 f!
b101 g
b1010011100000111100110100100100 g!
b1101010100100101010111000001100 h
b1111111110110011100000001001110 h!
b1010011100000111100110100100100 i
b1001100110010101011010101100101 i!
b10101010001110001001001000010 j
b110001010001110011101000010 k
b1110 k!
b1101010100100101010111000001100 l
b101 l!
b10101010001110001001001000010 m
b1101010100100101010111000001100 n
b100 n!
b1010011100000111100110100100100 o
b110 o!
b1111111110110011100000001001110 p
b1001100110010101011010101100101 q
b0 q!
b101 r!
b1110 s
b101 t
b1100 t!
b1011 u!
b100 v
b110 w
b1001 w!
b1010 x!
b0 y
b101 z
b1101 z!
b1100 {!
b1100 |
b1011 }
b1111 }!
b1100 ~!
#12000
0!
0,!
04
0W!
0_
#13000
1!
b111 !!
b1000 "!
b1001 ""
b10 #"
b1101 $!
b111 '!
b1001 (!
b1001 *!
b10 +!
1,!
14
b110 4!
b10110110111111001001100110011001 5!
b100000111101000110110111111110 6!
b10010001101011100001111010001010 7!
b1101110100001100111111101111010 8!
b10110110111111001001100110011001 9!
b10010001101011100001111010001010 :!
b10110110111111001001100110011001 ;!
b110 <
b100000111101000110110111111110 <!
b10110110111111001001100110011001 =
b1001000101010101011100000100011 =!
b100000111101000110110111111110 >
b1010000100010011100111001000010 >!
b10010001101011100001111010001010 ?
b1101110100001100111111101111010 @
b11 @!
b10110110111111001001100110011001 A
b10 A!
b10010001101011100001111010001010 B
b10110110111111001001100110011001 C
b10 C!
b100000111101000110110111111110 D
b100 D!
b1001000101010101011100000100011 E
b1010000100010011100111001000010 F
b1000 F!
b1110 G!
b11 H
b10 I
b1011 I!
b1100 J!
b10 K
b100 L
b1010 L!
b1001 M!
b1000 N
b1110 O
b1010 O!
b1000 P!
b1011 Q
b1100 R
b1000 R!
b0 S!
b1010 T
b1001 U
b100 U!
b101 V!
b1010 W
1W!
b1000 X
b1000 Z
b0 [
b100 ]
b101 ^
1_
b110 _!
b110001010001110011101000010 `!
b1101010100100101010111000001100 a!
b10010001101011100001111010001010 b!
b101001000010101001011101000010 c!
b110001010001110011101000010 d!
b10010001101011100001111010001010 e!
b110001010001110011101000010 f!
b110 g
b1101010100100101010111000001100 g!
b110001010001110011101000010 h
b10010111110101110000010111001100 h!
b1101010100100101010111000001100 i
b101001110010000111001100000111 i!
b10010001101011100001111010001010 j
b101001000010101001011101000010 k
b1100 k!
b110001010001110011101000010 l
b111 l!
b10010001101011100001111010001010 m
b110001010001110011101000010 n
b1100 n!
b1101010100100101010111000001100 o
b0 o!
b10010111110101110000010111001100 p
b101001110010000111001100000111 q
b101 q!
b11 r!
b1100 s
b111 t
b0 t!
b111 u!
b1100 v
b0 w
b111 w!
b1000 x!
b101 y
b11 z
b1101 z!
b0 |
b111 }
b111 }!
b1001 ~!
#14000
0!
0,!
04
0W!
0_
